{
  "data": [
    {
      "id": "11",
      "name": "ACEH",
      "type": null,
      "latitude": "4.69513500",
      "longitude": "96.74939930",
      "country_id": "ID",
      "country_name": "Indonesia",
      "country_name_uppercase": "INDONESIA",
      "province_id": "11",
      "province_name": "ACEH",
      "regency_id": null,
      "regency_name": null,
      "district_id": null,
      "district_name": null,
      "village_id": null,
      "village_name": null,
      "full_name": "ACEH",
      "name_translated": "ACEH",
      "country_name_translated": "Indonesia",
      "country_name_translated_uppercase": "INDONESIA"
    },
    {
      "id": "12",
      "name": "SUMATERA UTARA",
      "type": null,
      "latitude": "2.11535470",
      "longitude": "99.54509740",
      "country_id": "ID",
      "country_name": "Indonesia",
      "country_name_uppercase": "INDONESIA",
      "province_id": "12",
      "province_name": "SUMATERA UTARA",
      "regency_id": null,
      "regency_name": null,
      "district_id": null,
      "district_name": null,
      "village_id": null,
      "village_name": null,
      "full_name": "SUMATERA UTARA",
      "name_translated": "SUMATERA UTARA",
      "country_name_translated": "Indonesia",
      "country_name_translated_uppercase": "INDONESIA"
    },
    {
      "id": "13",
      "name": "SUMATERA BARAT",
      "type": null,
      "latitude": "-0.73993970",
      "longitude": "100.80000510",
      "country_id": "ID",
      "country_name": "Indonesia",
      "country_name_uppercase": "INDONESIA",
      "province_id": "13",
      "province_name": "SUMATERA BARAT",
      "regency_id": null,
      "regency_name": null,
      "district_id": null,
      "district_name": null,
      "village_id": null,
      "village_name": null,
      "full_name": "SUMATERA BARAT",
      "name_translated": "SUMATERA BARAT",
      "country_name_translated": "Indonesia",
      "country_name_translated_uppercase": "INDONESIA"
    },
    {
      "id": "1306",
      "name": "PADANG PARIAMAN",
      "type": null,
      "latitude": "-0.55467570",
      "longitude": "100.21515780",
      "country_id": "ID",
      "country_name": "Indonesia",
      "country_name_uppercase": "INDONESIA",
      "province_id": "13",
      "province_name": "SUMATERA BARAT",
      "regency_id": "1306",
      "regency_name": "PADANG PARIAMAN",
      "district_id": null,
      "district_name": null,
      "village_id": null,
      "village_name": null,
      "full_name": "SUMATERA BARAT, PADANG PARIAMAN",
      "name_translated": "PADANG PARIAMAN",
      "country_name_translated": "Indonesia",
      "country_name_translated_uppercase": "INDONESIA"
    },
    {
      "id": "14",
      "name": "RIAU",
      "type": null,
      "latitude": "0.29334690",
      "longitude": "101.70682940",
      "country_id": "ID",
      "country_name": "Indonesia",
      "country_name_uppercase": "INDONESIA",
      "province_id": "14",
      "province_name": "RIAU",
      "regency_id": null,
      "regency_name": null,
      "district_id": null,
      "district_name": null,
      "village_id": null,
      "village_name": null,
      "full_name": "RIAU",
      "name_translated": "RIAU",
      "country_name_translated": "Indonesia",
      "country_name_translated_uppercase": "INDONESIA"
    },
    {
      "id": "17",
      "name": "BENGKULU",
      "type": null,
      "latitude": "-3.57784710",
      "longitude": "102.34638750",
      "country_id": "ID",
      "country_name": "Indonesia",
      "country_name_uppercase": "INDONESIA",
      "province_id": "17",
      "province_name": "BENGKULU",
      "regency_id": null,
      "regency_name": null,
      "district_id": null,
      "district_name": null,
      "village_id": null,
      "village_name": null,
      "full_name": "BENGKULU",
      "name_translated": "BENGKULU",
      "country_name_translated": "Indonesia",
      "country_name_translated_uppercase": "INDONESIA"
    },
    {
      "id": "1704",
      "name": "KAUR",
      "type": null,
      "latitude": "-4.52159780",
      "longitude": "103.26634790",
      "country_id": "ID",
      "country_name": "Indonesia",
      "country_name_uppercase": "INDONESIA",
      "province_id": "17",
      "province_name": "BENGKULU",
      "regency_id": "1704",
      "regency_name": "KAUR",
      "district_id": null,
      "district_name": null,
      "village_id": null,
      "village_name": null,
      "full_name": "BENGKULU, KAUR",
      "name_translated": "KAUR",
      "country_name_translated": "Indonesia",
      "country_name_translated_uppercase": "INDONESIA"
    },
    {
      "id": "1704020",
      "name": "MAJE",
      "type": null,
      "latitude": "-4.71866520",
      "longitude": "103.49742580",
      "country_id": "ID",
      "country_name": "Indonesia",
      "country_name_uppercase": "INDONESIA",
      "province_id": "17",
      "province_name": "BENGKULU",
      "regency_id": "1704",
      "regency_name": "KAUR",
      "district_id": "1704020",
      "district_name": "MAJE",
      "village_id": null,
      "village_name": null,
      "full_name": "BENGKULU, KAUR, MAJE",
      "name_translated": "MAJE",
      "country_name_translated": "Indonesia",
      "country_name_translated_uppercase": "INDONESIA"
    },
    {
      "id": "1704020003",
      "name": "LINAU",
      "type": 2,
      "latitude": "-4.84901960",
      "longitude": "103.41939030",
      "country_id": "ID",
      "country_name": "Indonesia",
      "country_name_uppercase": "INDONESIA",
      "province_id": "17",
      "province_name": "BENGKULU",
      "regency_id": "1704",
      "regency_name": "KAUR",
      "district_id": "1704020",
      "district_name": "MAJE",
      "village_id": "1704020003",
      "village_name": "LINAU",
      "full_name": "BENGKULU, KAUR, MAJE, LINAU",
      "name_translated": "LINAU",
      "country_name_translated": "Indonesia",
      "country_name_translated_uppercase": "INDONESIA"
    },
    {
      "id": "18",
      "name": "LAMPUNG",
      "type": null,
      "latitude": "-4.55858490",
      "longitude": "105.40680790",
      "country_id": "ID",
      "country_name": "Indonesia",
      "country_name_uppercase": "INDONESIA",
      "province_id": "18",
      "province_name": "LAMPUNG",
      "regency_id": null,
      "regency_name": null,
      "district_id": null,
      "district_name": null,
      "village_id": null,
      "village_name": null,
      "full_name": "LAMPUNG",
      "name_translated": "LAMPUNG",
      "country_name_translated": "Indonesia",
      "country_name_translated_uppercase": "INDONESIA"
    },
    {
      "id": "1803",
      "name": "LAMPUNG SELATAN",
      "type": null,
      "latitude": "-5.56226140",
      "longitude": "105.54743730",
      "country_id": "ID",
      "country_name": "Indonesia",
      "country_name_uppercase": "INDONESIA",
      "province_id": "18",
      "province_name": "LAMPUNG",
      "regency_id": "1803",
      "regency_name": "LAMPUNG SELATAN",
      "district_id": null,
      "district_name": null,
      "village_id": null,
      "village_name": null,
      "full_name": "LAMPUNG, LAMPUNG SELATAN",
      "name_translated": "LAMPUNG SELATAN",
      "country_name_translated": "Indonesia",
      "country_name_translated_uppercase": "INDONESIA"
    },
    {
      "id": "1804",
      "name": "LAMPUNG TIMUR",
      "type": null,
      "latitude": "-5.11349950",
      "longitude": "105.68817880",
      "country_id": "ID",
      "country_name": "Indonesia",
      "country_name_uppercase": "INDONESIA",
      "province_id": "18",
      "province_name": "LAMPUNG",
      "regency_id": "1804",
      "regency_name": "LAMPUNG TIMUR",
      "district_id": null,
      "district_name": null,
      "village_id": null,
      "village_name": null,
      "full_name": "LAMPUNG, LAMPUNG TIMUR",
      "name_translated": "LAMPUNG TIMUR",
      "country_name_translated": "Indonesia",
      "country_name_translated_uppercase": "INDONESIA"
    },
    {
      "id": "1804061",
      "name": "PASIR SAKTI",
      "type": null,
      "latitude": "-5.54608890",
      "longitude": "105.77032870",
      "country_id": "ID",
      "country_name": "Indonesia",
      "country_name_uppercase": "INDONESIA",
      "province_id": "18",
      "province_name": "LAMPUNG",
      "regency_id": "1804",
      "regency_name": "LAMPUNG TIMUR",
      "district_id": "1804061",
      "district_name": "PASIR SAKTI",
      "village_id": null,
      "village_name": null,
      "full_name": "LAMPUNG, LAMPUNG TIMUR, PASIR SAKTI",
      "name_translated": "PASIR SAKTI",
      "country_name_translated": "Indonesia",
      "country_name_translated_uppercase": "INDONESIA"
    },
    {
      "id": "1804061005",
      "name": "PURWOREJO",
      "type": 2,
      "latitude": "-5.54021810",
      "longitude": "105.79967690",
      "country_id": "ID",
      "country_name": "Indonesia",
      "country_name_uppercase": "INDONESIA",
      "province_id": "18",
      "province_name": "LAMPUNG",
      "regency_id": "1804",
      "regency_name": "LAMPUNG TIMUR",
      "district_id": "1804061",
      "district_name": "PASIR SAKTI",
      "village_id": "1804061005",
      "village_name": "PURWOREJO",
      "full_name": "LAMPUNG, LAMPUNG TIMUR, PASIR SAKTI, PURWOREJO",
      "name_translated": "PURWOREJO",
      "country_name_translated": "Indonesia",
      "country_name_translated_uppercase": "INDONESIA"
    },
    {
      "id": "1804070",
      "name": "LABUHAN MARINGGAI",
      "type": null,
      "latitude": "-5.34289120",
      "longitude": "105.79380690",
      "country_id": "ID",
      "country_name": "Indonesia",
      "country_name_uppercase": "INDONESIA",
      "province_id": "18",
      "province_name": "LAMPUNG",
      "regency_id": "1804",
      "regency_name": "LAMPUNG TIMUR",
      "district_id": "1804070",
      "district_name": "LABUHAN MARINGGAI",
      "village_id": null,
      "village_name": null,
      "full_name": "LAMPUNG, LAMPUNG TIMUR, LABUHAN MARINGGAI",
      "name_translated": "LABUHAN MARINGGAI",
      "country_name_translated": "Indonesia",
      "country_name_translated_uppercase": "INDONESIA"
    }
  ],
  "links": {
    "first": "https://app.jala.tech/api/regions?has=shrimp_prices&page=1",
    "last": "https://app.jala.tech/api/regions?has=shrimp_prices&page=10",
    "prev": null,
    "next": "https://app.jala.tech/api/regions?has=shrimp_prices&page=2"
  },
  "meta": {
    "current_page": 1,
    "from": 1,
    "last_page": 10,
    "path": "https://app.jala.tech/api/regions",
    "per_page": 15,
    "to": 15,
    "total": 140
  }
}
